Lombardia
…
td <- dt %>% gather(key = "SESSO_ANNO", value = "DECESSI", #diamo dei nomi
                    MASCHI_15:TOTALE_20) 

td %>% tidyr::separate(SESSO_ANNO, c("SESSO", "ANNO"), "_") -> td

td %>% mutate(DATA = as.Date(paste0("0", GE, "20", ANNO), format = "%m%d%Y")) -> td

#Verifica su data_inizio_diff

library(plyr)
td %>% dplyr::filter(DECESSI < 9999) %>%
  dplyr::group_by(NOME_REGIONE, DATA_INIZIO_DIFF) %>% 
  dplyr::summarise(N_COMUNI = length(unique(NOME_COMUNE)))

## # A tibble: 77 x 3
## # Groups:   NOME_REGIONE [20]
##    NOME_REGIONE DATA_INIZIO_DIFF N_COMUNI
##    <fct>        <fct>               <int>
##  1 Abruzzo      1 aprile               22
##  2 Abruzzo      8 aprile                6
##  3 Abruzzo      Dati 2020 n.d.        277
##  4 Basilicata   1 aprile                6
##  5 Basilicata   16 aprile               3
##  6 Basilicata   8 aprile                1
##  7 Basilicata   Dati 2020 n.d.        121
##  8 Calabria     1 aprile                8
##  9 Calabria     16 aprile               8
## 10 Calabria     8 aprile                5
## # ... with 67 more rows
…
